{
    "firstNames": [
        "Rank",
        "Smith",
        "Johnson",
        "Williams",
        "Brown",
        "Jones",
        "Miller",
        "Davis",
        "Garcia",
        "Rodriguez",
        "Wilson",
        "Martinez",
        "Anderson",
        "Taylor",
        "Thomas",
        "Hernandez",
        "Moore",
        "Martin",
        "Jackson",
        "Thompson",
        "White",
        "Lopez",
        "Lee",
        "Gonzalez",
        "Harris",
        "Clark",
        "Lewis",
        "Robinson",
        "Walker",
        "Perez",
        "Hall",
        "Young",
        "Allen",
        "Sanchez",
        "Wright",
        "King",
        "Scott",
        "Green",
        "Baker",
        "Adams",
        "Nelson",
        "Hill",
        "Ramirez",
        "Campbell",
        "Mitchell",
        "Roberts",
        "Carter",
        "Phillips",
        "Evans",
        "Turner",
        "Torres",
        "Parker",
        "Collins",
        "Edwards",
        "Stewart",
        "Flores",
        "Morris",
        "Nguyen",
        "Murphy",
        "Rivera",
        "Cook",
        "Rogers",
        "Morgan",
        "Peterson",
        "Cooper",
        "Reed",
        "Bailey",
        "Bell",
        "Gomez",
        "Kelly",
        "Howard",
        "Ward",
        "Cox",
        "Diaz",
        "Richardson",
        "Wood",
        "Watson",
        "Brooks",
        "Bennett",
        "Gray",
        "James",
        "Reyes",
        "Cruz",
        "Hughes",
        "Price",
        "Myers",
        "Long",
        "Foster",
        "Sanders",
        "Ross",
        "Morales",
        "Powell",
        "Sullivan",
        "Russell",
        "Ortiz",
        "Jenkins",
        "Gutierrez",
        "Perry",
        "Butler",
        "Barnes",
        "Fisher",
        "Henderson",
        "Coleman",
        "Simmons",
        "Patterson",
        "Jordan",
        "Reynolds",
        "Hamilton",
        "Graham",
        "Kim",
        "Gonzales",
        "Alexander",
        "Ramos",
        "Wallace",
        "Griffin",
        "West",
        "Cole",
        "Hayes",
        "Chavez",
        "Gibson",
        "Bryant",
        "Ellis",
        "Stevens",
        "Murray",
        "Ford",
        "Marshall",
        "Owens",
        "Mcdonald",
        "Harrison",
        "Ruiz",
        "Kennedy",
        "Wells",
        "Alvarez",
        "Woods",
        "Mendoza",
        "Castillo",
        "Olson",
        "Webb",
        "Washington",
        "Tucker",
        "Freeman",
        "Burns",
        "Henry",
        "Vasquez",
        "Snyder",
        "Simpson",
        "Crawford",
        "Jimenez",
        "Porter",
        "Mason",
        "Shaw",
        "Gordon",
        "Wagner",
        "Hunter",
        "Romero",
        "Hicks",
        "Dixon",
        "Hunt",
        "Palmer",
        "Robertson",
        "Black",
        "Holmes",
        "Stone",
        "Meyer",
        "Boyd",
        "Mills",
        "Warren",
        "Fox",
        "Rose",
        "Rice",
        "Moreno",
        "Schmidt",
        "Patel",
        "Ferguson",
        "Nichols",
        "Herrera",
        "Medina",
        "Ryan",
        "Fernandez",
        "Weaver",
        "Daniels",
        "Stephens",
        "Gardner",
        "Payne",
        "Kelley",
        "Dunn",
        "Pierce",
        "Arnold",
        "Tran",
        "Spencer",
        "Peters",
        "Hawkins",
        "Grant",
        "Hansen",
        "Castro",
        "Hoffman",
        "Hart",
        "Elliott",
        "Cunningham",
        "Knight",
        "Bradley",
        "Carroll",
        "Hudson",
        "Duncan",
        "Armstrong",
        "Berry",
        "Andrews",
        "Johnston",
        "Ray",
        "Lane",
        "Riley",
        "Carpenter",
        "Perkins",
        "Aguilar",
        "Silva",
        "Richards",
        "Willis",
        "Matthews",
        "Chapman",
        "Lawrence",
        "Garza",
        "Vargas",
        "Watkins",
        "Wheeler",
        "Larson",
        "Carlson",
        "Harper",
        "George",
        "Greene",
        "Burke",
        "Guzman",
        "Morrison",
        "Munoz",
        "Jacobs",
        "Obrien",
        "Lawson",
        "Franklin",
        "Lynch",
        "Bishop",
        "Carr",
        "Salazar",
        "Austin",
        "Mendez",
        "Gilbert",
        "Jensen",
        "Williamson",
        "Montgomery",
        "Harvey",
        "Oliver",
        "Howell",
        "Dean",
        "Hanson",
        "Weber",
        "Garrett",
        "Sims",
        "Burton",
        "Fuller",
        "Soto",
        "Mccoy",
        "Welch",
        "Chen",
        "Schultz",
        "Walters",
        "Reid",
        "Fields",
        "Walsh",
        "Little",
        "Fowler",
        "Bowman",
        "Davidson",
        "May",
        "Day",
        "Schneider",
        "Newman",
        "Brewer",
        "Lucas",
        "Holland",
        "Wong",
        "Banks",
        "Santos",
        "Curtis",
        "Pearson",
        "Delgado",
        "Valdez",
        "Pena",
        "Rios",
        "Douglas",
        "Sandoval",
        "Barrett",
        "Hopkins",
        "Keller",
        "Guerrero",
        "Stanley",
        "Bates",
        "Alvarado",
        "Beck",
        "Ortega",
        "Wade",
        "Estrada",
        "Contreras",
        "Barnett",
        "Caldwell",
        "Santiago",
        "Lambert",
        "Powers",
        "Chambers",
        "Nunez",
        "Craig",
        "Leonard",
        "Lowe",
        "Rhodes",
        "Byrd",
        "Gregory",
        "Shelton",
        "Frazier",
        "Becker",
        "Maldonado",
        "Fleming",
        "Vega",
        "Sutton",
        "Cohen",
        "Jennings",
        "Parks",
        "Mcdaniel",
        "Watts",
        "Barker",
        "Norris",
        "Vaughn",
        "Vazquez",
        "Holt",
        "Schwartz",
        "Steele",
        "Benson",
        "Neal",
        "Dominguez",
        "Horton",
        "Terry",
        "Wolfe",
        "Hale",
        "Lyons",
        "Graves",
        "Haynes",
        "Miles",
        "Park",
        "Warner",
        "Padilla",
        "Bush",
        "Thornton",
        "Mccarthy",
        "Mann",
        "Zimmerman",
        "Erickson",
        "Fletcher",
        "Mckinney",
        "Page",
        "Dawson",
        "Joseph",
        "Marquez",
        "Reeves",
        "Klein",
        "Espinoza",
        "Baldwin",
        "Moran",
        "Love",
        "Robbins",
        "Higgins",
        "Ball",
        "Cortez",
        "Le",
        "Griffith",
        "Bowen",
        "Sharp",
        "Cummings",
        "Ramsey",
        "Hardy",
        "Swanson",
        "Barber",
        "Acosta",
        "Luna",
        "Chandler",
        "Daniel",
        "Blair",
        "Cross",
        "Simon",
        "Dennis",
        "Oconnor",
        "Quinn",
        "Gross",
        "Navarro",
        "Moss",
        "Fitzgerald",
        "Doyle",
        "Mclaughlin",
        "Rojas",
        "Rodgers",
        "Stevenson",
        "Singh",
        "Yang",
        "Figueroa",
        "Harmon",
        "Newton",
        "Paul",
        "Manning",
        "Garner",
        "Mcgee",
        "Reese",
        "Francis",
        "Burgess",
        "Adkins",
        "Goodman",
        "Curry",
        "Brady",
        "Christensen",
        "Potter",
        "Walton",
        "Goodwin",
        "Mullins",
        "Molina",
        "Webster",
        "Fischer",
        "Campos",
        "Avila",
        "Sherman",
        "Todd",
        "Chang",
        "Blake",
        "Malone",
        "Wolf",
        "Hodges",
        "Juarez",
        "Gill",
        "Farmer",
        "Hines",
        "Gallagher",
        "Duran",
        "Hubbard",
        "Cannon",
        "Miranda",
        "Wang",
        "Saunders",
        "Tate",
        "Mack",
        "Hammond",
        "Carrillo",
        "Townsend",
        "Wise",
        "Ingram",
        "Barton",
        "Mejia",
        "Ayala",
        "Schroeder",
        "Hampton",
        "Rowe",
        "Parsons",
        "Frank",
        "Waters",
        "Strickland",
        "Osborne",
        "Maxwell",
        "Chan",
        "Deleon",
        "Norman",
        "Harrington",
        "Casey",
        "Patton",
        "Logan",
        "Bowers",
        "Mueller",
        "Glover",
        "Floyd",
        "Hartman",
        "Buchanan",
        "Cobb",
        "French",
        "Kramer",
        "Mccormick",
        "Clarke",
        "Tyler",
        "Gibbs",
        "Moody",
        "Conner",
        "Sparks",
        "Mcguire",
        "Leon",
        "Bauer",
        "Norton",
        "Pope",
        "Flynn",
        "Hogan",
        "Robles",
        "Salinas",
        "Yates",
        "Lindsey",
        "Lloyd",
        "Marsh",
        "Mcbride",
        "Owen",
        "Solis",
        "Pham",
        "Lang",
        "Pratt",
        "Lara",
        "Brock",
        "Ballard",
        "Trujillo",
        "Shaffer",
        "Drake",
        "Roman",
        "Aguirre",
        "Morton",
        "Stokes",
        "Lamb",
        "Pacheco",
        "Patrick",
        "Cochran",
        "Shepherd",
        "Cain",
        "Burnett",
        "Hess",
        "Li",
        "Cervantes",
        "Olsen",
        "Briggs",
        "Ochoa",
        "Cabrera",
        "Velasquez",
        "Montoya",
        "Roth",
        "Meyers",
        "Cardenas",
        "Fuentes",
        "Weiss",
        "Wilkins",
        "Hoover",
        "Nicholson",
        "Underwood",
        "Short",
        "Carson",
        "Morrow",
        "Colon",
        "Holloway",
        "Summers",
        "Bryan",
        "Petersen",
        "Mckenzie",
        "Serrano",
        "Wilcox",
        "Carey",
        "Clayton",
        "Poole",
        "Calderon",
        "Gallegos",
        "Greer",
        "Rivas",
        "Guerra",
        "Decker",
        "Collier",
        "Wall",
        "Whitaker",
        "Bass",
        "Flowers",
        "Davenport",
        "Conley",
        "Houston",
        "Huff",
        "Copeland",
        "Hood",
        "Monroe",
        "Massey",
        "Roberson",
        "Combs",
        "Franco",
        "Larsen",
        "Pittman",
        "Randall",
        "Skinner",
        "Wilkinson",
        "Kirby",
        "Cameron",
        "Bridges",
        "Anthony",
        "Richard",
        "Kirk",
        "Bruce",
        "Singleton",
        "Mathis",
        "Bradford",
        "Boone",
        "Abbott",
        "Charles",
        "Allison",
        "Sweeney",
        "Atkinson",
        "Horn",
        "Jefferson",
        "Rosales",
        "York",
        "Christian",
        "Phelps",
        "Farrell",
        "Castaneda",
        "Nash",
        "Dickerson",
        "Bond",
        "Wyatt",
        "Foley",
        "Chase",
        "Gates",
        "Vincent",
        "Mathews",
        "Hodge",
        "Garrison",
        "Trevino",
        "Villarreal",
        "Heath",
        "Dalton",
        "Valencia",
        "Callahan",
        "Hensley",
        "Atkins",
        "Huffman",
        "Roy",
        "Boyer",
        "Shields",
        "Lin",
        "Hancock",
        "Grimes",
        "Glenn",
        "Cline",
        "Delacruz",
        "Camacho",
        "Dillon",
        "Parrish",
        "Oneill",
        "Melton",
        "Booth",
        "Kane",
        "Berg",
        "Harrell",
        "Pitts",
        "Savage",
        "Wiggins",
        "Brennan",
        "Salas",
        "Marks",
        "Russo",
        "Sawyer",
        "Baxter",
        "Golden",
        "Hutchinson",
        "Liu",
        "Walter",
        "Mcdowell",
        "Wiley",
        "Rich",
        "Humphrey",
        "Johns",
        "Koch",
        "Suarez",
        "Hobbs",
        "Beard",
        "Gilmore",
        "Ibarra",
        "Keith",
        "Macias",
        "Khan",
        "Andrade",
        "Ware",
        "Stephenson",
        "Henson",
        "Wilkerson",
        "Dyer",
        "Mcclure",
        "Blackwell",
        "Mercado",
        "Tanner",
        "Eaton",
        "Clay",
        "Barron",
        "Beasley",
        "Oneal",
        "Small",
        "Preston",
        "Wu",
        "Zamora",
        "Macdonald",
        "Vance",
        "Snow",
        "Mcclain",
        "Stafford",
        "Orozco",
        "Barry",
        "English",
        "Shannon",
        "Kline",
        "Jacobson",
        "Woodard",
        "Huang",
        "Kemp",
        "Mosley",
        "Prince",
        "Merritt",
        "Hurst",
        "Villanueva",
        "Roach",
        "Nolan",
        "Lam",
        "Yoder",
        "Mccullough",
        "Lester",
        "Santana",
        "Valenzuela",
        "Winters",
        "Barrera",
        "Orr",
        "Leach",
        "Berger",
        "Mckee",
        "Strong",
        "Conway",
        "Stein",
        "Whitehead",
        "Bullock",
        "Escobar",
        "Knox",
        "Meadows",
        "Solomon",
        "Velez",
        "Odonnell",
        "Kerr",
        "Stout",
        "Blankenship",
        "Browning",
        "Kent",
        "Lozano",
        "Bartlett",
        "Pruitt",
        "Buck",
        "Barr",
        "Gaines",
        "Durham",
        "Gentry",
        "Mcintyre",
        "Sloan",
        "Rocha",
        "Melendez",
        "Herman",
        "Sexton",
        "Moon",
        "Hendricks",
        "Rangel",
        "Stark",
        "Lowery",
        "Hardin",
        "Hull",
        "Sellers",
        "Ellison",
        "Calhoun",
        "Gillespie",
        "Mora",
        "Knapp",
        "Mccall",
        "Morse",
        "Dorsey",
        "Weeks",
        "Nielsen",
        "Livingston",
        "Leblanc",
        "Mclean",
        "Bradshaw",
        "Glass",
        "Middleton",
        "Buckley",
        "Schaefer",
        "Frost",
        "Howe",
        "House",
        "Mcintosh",
        "Ho",
        "Pennington",
        "Reilly",
        "Hebert",
        "Mcfarland",
        "Hickman",
        "Noble",
        "Spears",
        "Conrad",
        "Arias",
        "Galvan",
        "Velazquez",
        "Huynh",
        "Frederick",
        "Randolph",
        "Cantu",
        "Fitzpatrick",
        "Mahoney",
        "Peck",
        "Villa",
        "Michael",
        "Donovan",
        "Mcconnell",
        "Walls",
        "Boyle",
        "Mayer",
        "Zuniga",
        "Giles",
        "Pineda",
        "Pace",
        "Hurley",
        "Mays",
        "Mcmillan",
        "Crosby",
        "Ayers",
        "Case",
        "Bentley",
        "Shepard",
        "Everett",
        "Pugh",
        "David",
        "Mcmahon",
        "Dunlap",
        "Bender",
        "Hahn",
        "Harding",
        "Acevedo",
        "Raymond",
        "Blackburn",
        "Duffy",
        "Landry",
        "Dougherty",
        "Bautista",
        "Shah",
        "Potts",
        "Arroyo",
        "Valentine",
        "Meza",
        "Gould",
        "Vaughan",
        "Fry",
        "Rush",
        "Avery",
        "Herring",
        "Dodson",
        "Clements",
        "Sampson",
        "Tapia",
        "Bean",
        "Lynn",
        "Crane",
        "Farley",
        "Cisneros",
        "Benton",
        "Ashley",
        "Mckay",
        "Finley",
        "Best",
        "Blevins",
        "Friedman",
        "Moses",
        "Sosa",
        "Blanchard",
        "Huber",
        "Frye",
        "Krueger",
        "Bernard",
        "Rosario",
        "Rubio",
        "Mullen",
        "Benjamin",
        "Haley",
        "Chung",
        "Moyer",
        "Choi",
        "Horne",
        "Yu",
        "Woodward",
        "Ali",
        "Nixon",
        "Hayden",
        "Rivers",
        "Estes",
        "Mccarty",
        "Richmond",
        "Stuart",
        "Maynard",
        "Brandt",
        "Oconnell",
        "Hanna",
        "Sanford",
        "Sheppard",
        "Church",
        "Burch",
        "Levy",
        "Rasmussen",
        "Coffey",
        "Ponce",
        "Faulkner",
        "Donaldson",
        "Schmitt",
        "Novak",
        "Costa",
        "Montes",
        "Booker",
        "Cordova",
        "Waller",
        "Arellano",
        "Maddox",
        "Mata",
        "Bonilla",
        "Stanton",
        "Compton",
        "Kaufman",
        "Dudley",
        "Mcpherson",
        "Beltran",
        "Dickson",
        "Mccann",
        "Villegas",
        "Proctor",
        "Hester",
        "Cantrell",
        "Daugherty",
        "Cherry",
        "Bray",
        "Davila",
        "Rowland",
        "Madden",
        "Levine",
        "Spence",
        "Good",
        "Irwin",
        "Werner",
        "Krause",
        "Petty",
        "Whitney",
        "Baird",
        "Hooper",
        "Pollard",
        "Zavala",
        "Jarvis",
        "Holden",
        "Hendrix",
        "Haas",
        "Mcgrath",
        "Bird",
        "Lucero",
        "Terrell",
        "Riggs",
        "Joyce",
        "Rollins",
        "Mercer",
        "Galloway",
        "Duke",
        "Odom",
        "Andersen",
        "Downs",
        "Hatfield",
        "Benitez",
        "Archer",
        "Huerta",
        "Travis",
        "Mcneil",
        "Hinton",
        "Zhang",
        "Hays",
        "Mayo",
        "Fritz",
        "Branch",
        "Mooney",
        "Ewing",
        "Ritter",
        "Esparza",
        "Frey",
        "Braun",
        "Gay",
        "Riddle",
        "Haney",
        "Kaiser",
        "Holder",
        "Chaney",
        "Mcknight",
        "Gamble",
        "Vang",
        "Cooley",
        "Carney",
        "Cowan",
        "Forbes",
        "Ferrell",
        "Davies",
        "Barajas",
        "Shea",
        "Osborn",
        "Bright",
        "Cuevas",
        "Bolton",
        "Murillo",
        "Lutz",
        "Duarte",
        "Kidd",
        "Key",
        "Cooke"
    ],
    "lastNames": [
        "Yankovsky",
        "Smith",
        "Johnson",
        "Williams",
        "Jones",
        "Brown",
        "Davis",
        "Miller",
        "Wilson",
        "Moore",
        "Taylor",
        "Anderson",
        "Thomas",
        "Jackson",
        "White",
        "Harris",
        "Martin",
        "Thompson",
        "Garcia",
        "Martinez",
        "Robinson",
        "Clark",
        "Rodriguez",
        "Lewis",
        "Lee",
        "Walker",
        "Hall",
        "Allen",
        "Young",
        "Hernandez",
        "King",
        "Wright",
        "Lopez",
        "Hill",
        "Scott",
        "Green",
        "Adams",
        "Baker",
        "Gonzalez",
        "Nelson",
        "Carter",
        "Mitchell",
        "Perez",
        "Roberts",
        "Turner",
        "Phillips",
        "Campbell",
        "Parker",
        "Evans",
        "Edwards",
        "Collins",
        "Stewart",
        "Sanchez",
        "Morris",
        "Rogers",
        "Reed",
        "Cook",
        "Morgan",
        "Bell",
        "Murphy",
        "Bailey",
        "Rivera",
        "Cooper",
        "Richardson",
        "Cox",
        "Howard",
        "Ward",
        "Torres",
        "Peterson",
        "Gray",
        "Ramirez",
        "James",
        "Watson",
        "Brooks",
        "Kelly",
        "Sanders",
        "Price",
        "Bennett",
        "Wood",
        "Barnes",
        "Ross",
        "Henderson",
        "Coleman",
        "Jenkins",
        "Perry",
        "Powell",
        "Long",
        "Patterson",
        "Hughes",
        "Flores",
        "Washington",
        "Butler",
        "Simmons",
        "Foster",
        "Gonzales",
        "Bryant",
        "Alexander",
        "Russell",
        "Griffin",
        "Diaz",
        "Hayes",
        "Myers",
        "Ford",
        "Hamilton",
        "Graham",
        "Sullivan",
        "Wallace",
        "Woods",
        "Cole",
        "West",
        "Jordan",
        "Owens",
        "Reynolds",
        "Fisher",
        "Ellis",
        "Harrison",
        "Gibson",
        "Mcdonald",
        "Cruz",
        "Marshall",
        "Ortiz",
        "Gomez",
        "Murray",
        "Freeman",
        "Wells",
        "Webb",
        "Simpson",
        "Stevens",
        "Tucker",
        "Porter",
        "Hunter",
        "Hicks",
        "Crawford",
        "Henry",
        "Boyd",
        "Mason",
        "Morales",
        "Kennedy",
        "Warren",
        "Dixon",
        "Ramos",
        "Reyes",
        "Burns",
        "Gordon",
        "Shaw",
        "Holmes",
        "Rice",
        "Robertson",
        "Hunt",
        "Black",
        "Daniels",
        "Palmer",
        "Mills",
        "Nichols",
        "Grant",
        "Knight",
        "Ferguson",
        "Rose",
        "Stone",
        "Hawkins",
        "Dunn",
        "Perkins",
        "Hudson",
        "Spencer",
        "Gardner",
        "Stephens",
        "Payne",
        "Pierce",
        "Berry",
        "Matthews",
        "Arnold",
        "Wagner",
        "Willis",
        "Ray",
        "Watkins",
        "Olson",
        "Carroll",
        "Duncan",
        "Snyder",
        "Hart",
        "Cunningham",
        "Bradley",
        "Lane",
        "Andrews",
        "Ruiz",
        "Harper",
        "Fox",
        "Riley",
        "Armstrong",
        "Carpenter",
        "Weaver",
        "Greene",
        "Lawrence",
        "Elliott",
        "Chavez",
        "Sims",
        "Austin",
        "Peters",
        "Kelley",
        "Franklin",
        "Lawson",
        "Fields",
        "Gutierrez",
        "Ryan",
        "Schmidt",
        "Carr",
        "Vasquez",
        "Castillo",
        "Wheeler",
        "Chapman",
        "Oliver",
        "Montgomery",
        "Richards",
        "Williamson",
        "Johnston",
        "Banks",
        "Meyer",
        "Bishop",
        "Mccoy",
        "Howell",
        "Alvarez",
        "Morrison",
        "Hansen",
        "Fernandez",
        "Garza",
        "Harvey",
        "Little",
        "Burton",
        "Stanley",
        "Nguyen",
        "George",
        "Jacobs",
        "Reid",
        "Kim",
        "Fuller",
        "Lynch",
        "Dean",
        "Gilbert",
        "Garrett",
        "Romero",
        "Welch",
        "Larson",
        "Frazier",
        "Burke",
        "Hanson",
        "Day",
        "Mendoza",
        "Moreno",
        "Bowman",
        "Medina",
        "Fowler",
        "Brewer",
        "Hoffman",
        "Carlson",
        "Silva",
        "Pearson",
        "Holland",
        "Douglas",
        "Fleming",
        "Jensen",
        "Vargas",
        "Byrd",
        "Davidson",
        "Hopkins",
        "May",
        "Terry",
        "Herrera",
        "Wade",
        "Soto",
        "Walters",
        "Curtis",
        "Neal",
        "Caldwell",
        "Lowe",
        "Jennings",
        "Barnett",
        "Graves",
        "Jimenez",
        "Horton",
        "Shelton",
        "Barrett",
        "Obrien",
        "Castro",
        "Sutton",
        "Gregory",
        "Mckinney",
        "Lucas",
        "Miles",
        "Craig",
        "Rodriquez",
        "Chambers",
        "Holt",
        "Lambert",
        "Fletcher",
        "Watts",
        "Bates",
        "Hale",
        "Rhodes",
        "Pena",
        "Beck",
        "Newman",
        "Haynes",
        "Mcdaniel",
        "Mendez",
        "Bush",
        "Vaughn",
        "Parks",
        "Dawson",
        "Santiago",
        "Norris",
        "Hardy",
        "Love",
        "Steele",
        "Curry",
        "Powers",
        "Schultz",
        "Barker",
        "Guzman",
        "Page",
        "Munoz",
        "Ball",
        "Keller",
        "Chandler",
        "Weber",
        "Leonard",
        "Walsh",
        "Lyons",
        "Ramsey",
        "Wolfe",
        "Schneider",
        "Mullins",
        "Benson",
        "Sharp",
        "Bowen",
        "Daniel",
        "Barber",
        "Cummings",
        "Hines",
        "Baldwin",
        "Griffith",
        "Valdez",
        "Hubbard",
        "Salazar",
        "Reeves",
        "Warner",
        "Stevenson",
        "Burgess",
        "Santos",
        "Tate",
        "Cross",
        "Garner",
        "Mann",
        "Mack",
        "Moss",
        "Thornton",
        "Dennis",
        "Mcgee",
        "Farmer",
        "Delgado",
        "Aguilar",
        "Vega",
        "Glover",
        "Manning",
        "Cohen",
        "Harmon",
        "Rodgers",
        "Robbins",
        "Newton",
        "Todd",
        "Blair",
        "Higgins",
        "Ingram",
        "Reese",
        "Cannon",
        "Strickland",
        "Townsend",
        "Potter",
        "Goodwin",
        "Walton",
        "Rowe",
        "Hampton",
        "Ortega",
        "Patton",
        "Swanson",
        "Joseph",
        "Francis",
        "Goodman",
        "Maldonado",
        "Yates",
        "Becker",
        "Erickson",
        "Hodges",
        "Rios",
        "Conner",
        "Adkins",
        "Webster",
        "Norman",
        "Malone",
        "Hammond",
        "Flowers",
        "Cobb",
        "Moody",
        "Quinn",
        "Blake",
        "Maxwell",
        "Pope",
        "Floyd",
        "Osborne",
        "Paul",
        "Mccarthy",
        "Guerrero",
        "Lindsey",
        "Estrada",
        "Sandoval",
        "Gibbs",
        "Tyler",
        "Gross",
        "Fitzgerald",
        "Stokes",
        "Doyle",
        "Sherman",
        "Saunders",
        "Wise",
        "Colon",
        "Gill",
        "Alvarado",
        "Greer",
        "Padilla",
        "Simon",
        "Waters",
        "Nunez",
        "Ballard",
        "Schwartz",
        "Mcbride",
        "Houston",
        "Christensen",
        "Klein",
        "Pratt",
        "Briggs",
        "Parsons",
        "Mclaughlin",
        "Zimmerman",
        "French",
        "Buchanan",
        "Moran",
        "Copeland",
        "Roy",
        "Pittman",
        "Brady",
        "Mccormick",
        "Holloway",
        "Brock",
        "Poole",
        "Frank",
        "Logan",
        "Owen",
        "Bass",
        "Marsh",
        "Drake",
        "Wong",
        "Jefferson",
        "Park",
        "Morton",
        "Abbott",
        "Sparks",
        "Patrick",
        "Norton",
        "Huff",
        "Clayton",
        "Massey",
        "Lloyd",
        "Figueroa",
        "Carson",
        "Bowers",
        "Roberson",
        "Barton",
        "Tran",
        "Lamb",
        "Harrington",
        "Casey",
        "Boone",
        "Cortez",
        "Clarke",
        "Mathis",
        "Singleton",
        "Wilkins",
        "Cain",
        "Bryan",
        "Underwood",
        "Hogan",
        "Mckenzie",
        "Collier",
        "Luna",
        "Phelps",
        "Mcguire",
        "Allison",
        "Bridges",
        "Wilkerson",
        "Nash",
        "Summers",
        "Atkins",
        "Wilcox",
        "Pitts",
        "Conley",
        "Marquez",
        "Burnett",
        "Richard",
        "Cochran",
        "Chase",
        "Davenport",
        "Hood",
        "Gates",
        "Clay",
        "Ayala",
        "Sawyer",
        "Roman",
        "Vazquez",
        "Dickerson",
        "Hodge",
        "Acosta",
        "Flynn",
        "Espinoza",
        "Nicholson",
        "Monroe",
        "Wolf",
        "Morrow",
        "Kirk",
        "Randall",
        "Anthony",
        "Whitaker",
        "Oconnor",
        "Skinner",
        "Ware",
        "Molina",
        "Kirby",
        "Huffman",
        "Bradford",
        "Charles",
        "Gilmore",
        "Dominguez",
        "Oneal",
        "Bruce",
        "Lang",
        "Combs",
        "Kramer",
        "Heath",
        "Hancock",
        "Gallagher",
        "Gaines",
        "Shaffer",
        "Short",
        "Wiggins",
        "Mathews",
        "Mcclain",
        "Fischer",
        "Wall",
        "Small",
        "Melton",
        "Hensley",
        "Bond",
        "Dyer",
        "Cameron",
        "Grimes",
        "Contreras",
        "Christian",
        "Wyatt",
        "Baxter",
        "Snow",
        "Mosley",
        "Shepherd",
        "Larsen",
        "Hoover",
        "Beasley",
        "Glenn",
        "Petersen",
        "Whitehead",
        "Meyers",
        "Keith",
        "Garrison",
        "Vincent",
        "Shields",
        "Horn",
        "Savage",
        "Olsen",
        "Schroeder",
        "Hartman",
        "Woodard",
        "Mueller",
        "Kemp",
        "Deleon",
        "Booth",
        "Patel",
        "Calhoun",
        "Wiley",
        "Eaton",
        "Cline",
        "Navarro",
        "Harrell",
        "Lester",
        "Humphrey",
        "Parrish",
        "Duran",
        "Hutchinson",
        "Hess",
        "Dorsey",
        "Bullock",
        "Robles",
        "Beard",
        "Dalton",
        "Avila",
        "Vance",
        "Rich",
        "Blackwell",
        "York",
        "Johns",
        "Blankenship",
        "Trevino",
        "Salinas",
        "Campos",
        "Pruitt",
        "Moses",
        "Callahan",
        "Golden",
        "Montoya",
        "Hardin",
        "Guerra",
        "Mcdowell",
        "Carey",
        "Stafford",
        "Gallegos",
        "Henson",
        "Wilkinson",
        "Booker",
        "Merritt",
        "Miranda",
        "Atkinson",
        "Orr",
        "Decker",
        "Hobbs",
        "Preston",
        "Tanner",
        "Knox",
        "Pacheco",
        "Stephenson",
        "Glass",
        "Rojas",
        "Serrano",
        "Marks",
        "Hickman",
        "English",
        "Sweeney",
        "Strong",
        "Prince",
        "Mcclure",
        "Conway",
        "Walter",
        "Roth",
        "Maynard",
        "Farrell",
        "Lowery",
        "Hurst",
        "Nixon",
        "Weiss",
        "Trujillo",
        "Ellison",
        "Sloan",
        "Juarez",
        "Winters",
        "Mclean",
        "Randolph",
        "Leon",
        "Boyer",
        "Villarreal",
        "Mccall",
        "Gentry",
        "Carrillo",
        "Kent",
        "Ayers",
        "Lara",
        "Shannon",
        "Sexton",
        "Pace",
        "Hull",
        "Leblanc",
        "Browning",
        "Velasquez",
        "Leach",
        "Chang",
        "House",
        "Sellers",
        "Herring",
        "Noble",
        "Foley",
        "Bartlett",
        "Mercado",
        "Landry",
        "Durham",
        "Walls",
        "Barr",
        "Mckee",
        "Bauer",
        "Rivers",
        "Everett",
        "Bradshaw",
        "Pugh",
        "Velez",
        "Rush",
        "Estes",
        "Dodson",
        "Morse",
        "Sheppard",
        "Weeks",
        "Camacho",
        "Bean",
        "Barron",
        "Livingston",
        "Middleton",
        "Spears",
        "Branch",
        "Blevins",
        "Chen",
        "Kerr",
        "Mcconnell",
        "Hatfield",
        "Harding",
        "Ashley",
        "Solis",
        "Herman",
        "Frost",
        "Giles",
        "Blackburn",
        "William",
        "Pennington",
        "Woodward",
        "Finley",
        "Mcintosh",
        "Koch",
        "Best",
        "Solomon",
        "Mccullough",
        "Dudley",
        "Nolan",
        "Blanchard",
        "Rivas",
        "Brennan",
        "Mejia",
        "Kane",
        "Benton",
        "Joyce",
        "Buckley",
        "Haley",
        "Valentine",
        "Maddox",
        "Russo",
        "Mcknight",
        "Buck",
        "Moon",
        "Mcmillan",
        "Crosby",
        "Berg",
        "Dotson",
        "Mays",
        "Roach",
        "Church",
        "Chan",
        "Richmond",
        "Meadows",
        "Faulkner",
        "Oneill",
        "Knapp",
        "Kline",
        "Barry",
        "Ochoa",
        "Jacobson",
        "Gay",
        "Avery",
        "Hendricks",
        "Horne",
        "Shepard",
        "Hebert",
        "Cherry",
        "Cardenas",
        "Mcintyre",
        "Whitney",
        "Waller",
        "Holman",
        "Donaldson",
        "Cantu",
        "Terrell",
        "Morin",
        "Gillespie",
        "Fuentes",
        "Tillman",
        "Sanford",
        "Bentley",
        "Peck",
        "Key",
        "Salas",
        "Rollins",
        "Gamble",
        "Dickson",
        "Battle",
        "Santana",
        "Cabrera",
        "Cervantes",
        "Howe",
        "Hinton",
        "Hurley",
        "Spence",
        "Zamora",
        "Yang",
        "Mcneil",
        "Suarez",
        "Case",
        "Petty",
        "Gould",
        "Mcfarland",
        "Sampson",
        "Carver",
        "Bray",
        "Rosario",
        "Macdonald",
        "Stout",
        "Hester",
        "Melendez",
        "Dillon",
        "Farley",
        "Hopper",
        "Galloway",
        "Potts",
        "Bernard",
        "Joyner",
        "Stein",
        "Aguirre",
        "Osborn",
        "Mercer",
        "Bender",
        "Franco",
        "Rowland",
        "Sykes",
        "Benjamin",
        "Travis",
        "Pickett",
        "Crane",
        "Sears",
        "Mayo",
        "Dunlap",
        "Hayden",
        "Wilder",
        "Mckay",
        "Coffey",
        "Mccarty",
        "Ewing",
        "Cooley",
        "Vaughan",
        "Bonner",
        "Cotton",
        "Holder",
        "Stark",
        "Ferrell",
        "Cantrell",
        "Fulton",
        "Lynn",
        "Lott",
        "Calderon",
        "Rosa",
        "Pollard",
        "Hooper",
        "Burch",
        "Mullen",
        "Fry",
        "Riddle",
        "Levy",
        "David",
        "Duke",
        "Odonnell",
        "Guy",
        "Michael",
        "Britt",
        "Frederick",
        "Daugherty",
        "Berger",
        "Dillard",
        "Alston",
        "Jarvis",
        "Frye",
        "Riggs",
        "Chaney",
        "Odom",
        "Duffy",
        "Fitzpatrick",
        "Valenzuela",
        "Merrill",
        "Mayer",
        "Alford",
        "Mcpherson",
        "Acevedo",
        "Donovan",
        "Barrera",
        "Albert",
        "Cote",
        "Reilly",
        "Compton",
        "Raymond",
        "Mooney",
        "Mcgowan",
        "Craft",
        "Cleveland",
        "Clemons",
        "Wynn",
        "Nielsen",
        "Baird",
        "Stanton",
        "Snider",
        "Rosales",
        "Bright",
        "Witt",
        "Stuart",
        "Hays",
        "Holden",
        "Rutledge",
        "Kinney",
        "Clements",
        "Castaneda",
        "Slater",
        "Hahn",
        "Emerson",
        "Conrad",
        "Burks",
        "Delaney",
        "Pate",
        "Lancaster",
        "Sweet",
        "Justice",
        "Tyson",
        "Sharpe",
        "Whitfield",
        "Talley",
        "Macias",
        "Irwin",
        "Burris",
        "Ratliff",
        "Mccray",
        "Madden",
        "Kaufman",
        "Beach",
        "Goff",
        "Cash",
        "Bolton",
        "Mcfadden",
        "Levine",
        "Good",
        "Byers",
        "Kirkland",
        "Kidd",
        "Workman",
        "Carney",
        "Dale",
        "Mcleod",
        "Holcomb",
        "England",
        "Finch",
        "Head",
        "Burt",
        "Hendrix",
        "Sosa",
        "Haney",
        "Franks",
        "Sargent",
        "Nieves",
        "Downs",
        "Rasmussen",
        "Bird",
        "Hewitt",
        "Lindsay",
        "Le",
        "Foreman",
        "Valencia",
        "Oneil",
        "Delacruz",
        "Vinson",
        "Dejesus",
        "Hyde",
        "Forbes",
        "Gilliam",
        "Guthrie",
        "Wooten",
        "Huber",
        "Barlow",
        "Boyle",
        "Mcmahon",
        "Buckner",
        "Rocha",
        "Puckett",
        "Langley",
        "Knowles",
        "Cooke",
        "Velazquez",
        "Whitley",
        "Noel",
        "Vang"
    ]
}